[gd_scene load_steps=3 format=2]

[ext_resource path="res://Sprites/Key/Key.png" type="Texture" id=1]

[sub_resource type="RectangleShape2D" id=1]

custom_solver_bias = 0.0
extents = Vector2( 10, 10 )

[node name="Area2D" type="Area2D"]

position = Vector2( 20.859, 21.0228 )
scale = Vector2( 0.629526, 0.629526 )
input_pickable = true
gravity_vec = Vector2( 0, 1 )
gravity = 98.0
linear_damp = 0.1
angular_damp = 1.0
audio_bus_override = false
audio_bus_name = "Master"

[node name="CollisionShape2D" type="CollisionShape2D" parent="." index="0"]

position = Vector2( -1.24211, -1.12612 )
scale = Vector2( 3.1306, 3.1306 )
shape = SubResource( 1 )

[node name="Sprite" type="Sprite" parent="." index="1"]

position = Vector2( -0.887415, -0.760845 )
scale = Vector2( 0.155837, 0.155958 )
texture = ExtResource( 1 )


