[gd_scene load_steps=2 format=2]

[ext_resource path="res://Tilesets/Wall.tres" type="TileSet" id=1]

[node name="Node" type="Node"]

[node name="TileMap" type="TileMap" parent="." index="0"]

mode = 0
tile_set = ExtResource( 1 )
cell_size = Vector2( 16, 16 )
cell_quadrant_size = 16
cell_custom_transform = Transform2D( 1, 0, 0, 1, 0, 0 )
cell_half_offset = 2
cell_tile_origin = 0
cell_y_sort = false
cell_clip_uv = false
collision_use_kinematic = false
collision_friction = 1.0
collision_bounce = 0.0
collision_layer = 1
collision_mask = 1
occluder_light_mask = 1
format = 1
tile_data = PoolIntArray( 0, 0, 0, 1, 0, 0, 2, 0, 0, 3, 0, 0, 4, 0, 0, 5, 0, 0, 6, 0, 0, 7, 0, 0, 8, 0, 0, 9, 0, 0, 10, 0, 0, 11, 0, 0, 12, 0, 0, 13, 0, 0, 14, 0, 0, 15, 0, 0, 16, 0, 0, 17, 0, 0, 65536, 0, 0, 65553, 0, 0, 131072, 0, 0, 131089, 0, 0, 196608, 0, 0, 196625, 0, 0, 262144, 0, 0, 262161, 0, 0, 327680, 0, 0, 327697, 0, 0, 393216, 0, 0, 393233, 0, 0, 458752, 0, 0, 458769, 0, 0, 524288, 0, 0, 524289, 0, 0, 524290, 0, 0, 524291, 0, 0, 524292, 0, 0, 524293, 0, 0, 524294, 0, 0, 524295, 0, 0, 524296, 0, 0, 524297, 0, 0, 524298, 0, 0, 524299, 0, 0, 524300, 0, 0, 524305, 0, 0, 589824, 0, 0, 589841, 0, 0, 655360, 0, 0, 655377, 0, 0, 720896, 0, 0, 720897, 0, 0, 720898, 0, 0, 720899, 0, 0, 720900, 0, 0, 720901, 0, 0, 720902, 0, 0, 720903, 2, 0, 720904, 2, 0, 720905, 0, 0, 720906, 0, 0, 720907, 0, 0, 720908, 0, 0, 720909, 0, 0, 720910, 0, 0, 720911, 0, 0, 720912, 0, 0, 720913, 0, 0 )
_sections_unfolded = [ "Cell" ]


